{
"type": "FeatureCollection",
                                                                                
"features": [
{ "type": "Feature", "properties": { "Name": "WA-OWF-JU89 Wolverine 7-26-2015 2209", "Description": "<a href='http:\/\/www.geomac.gov' target='_blank'><img src='http:\/\/wildfire.cr.usgs.gov\/geomac\/images\/geomac.gif' width='144' height='42' \/><\/a><br \/> Agency: USFS<br \/> Unit Identifer: WA-OWF<br \/> Fire Number: JU89<br \/> Fire Name: Wolverine<br \/> Fire Name (if in complex):  <br \/> Acres: 432.39<br \/> Perimeter Date: 7\/26\/2015<br \/> Perimeter Time: 2209<br \/> Comments: IR heat perimeter<br \/> Incident Number: WA-OWF-000287<br \/> <a href='http:\/\/www.nifc.gov\/fireInfo\/nfn.htm' target='_blank'>National Fire News<\/a><br \/> <a href='http:\/\/www.geomac.gov\/' target='_blank'>Geomac Wildland Fire Support<\/a><br \/> <a href='http:\/\/inciweb.nwcg.gov\/incident\/4354' target='_blank'>Inciweb<\/a>" }, "geometry": { "type": "Point", "coordinates": [ 45, 90, 0.0 ] } }
,
{ "type": "Feature", "properties": { "Name": "WA-OWF-JU89 Wolverine 7-26-2015 2209", "Description": "" }, "geometry": { "type": "MultiPolygon", "coordinates": [ [ [ [ -120.6541, 48.24082, 0.0 ], [ -120.6543, 48.24083, 0.0 ], [ -120.6545, 48.24102, 0.0 ], [ -120.6542, 48.24101, 0.0 ], [ -120.654, 48.24105, 0.0 ], [ -120.654, 48.24088, 0.0 ], [ -120.6541, 48.24082, 0.0 ] ] ], [ [ [ -120.649, 48.24096, 0.0 ], [ -120.6487, 48.24075, 0.0 ], [ -120.6483, 48.24074, 0.0 ], [ -120.648, 48.24073, 0.0 ], [ -120.6479, 48.2406, 0.0 ], [ -120.648, 48.24052, 0.0 ], [ -120.648, 48.24043, 0.0 ], [ -120.6476, 48.24035, 0.0 ], [ -120.6474, 48.24032, 0.0 ], [ -120.6473, 48.24017, 0.0 ], [ -120.6473, 48.24002, 0.0 ], [ -120.6469, 48.24002, 0.0 ], [ -120.6465, 48.24002, 0.0 ], [ -120.6462, 48.24001, 0.0 ], [ -120.6461, 48.23999, 0.0 ], [ -120.6459, 48.23983, 0.0 ], [ -120.6458, 48.2397, 0.0 ], [ -120.6458, 48.23953, 0.0 ], [ -120.6456, 48.23946, 0.0 ], [ -120.6455, 48.23937, 0.0 ], [ -120.6455, 48.23931, 0.0 ], [ -120.6455, 48.23923, 0.0 ], [ -120.6457, 48.23919, 0.0 ], [ -120.6461, 48.23914, 0.0 ], [ -120.6463, 48.23904, 0.0 ], [ -120.6466, 48.23897, 0.0 ], [ -120.6468, 48.23888, 0.0 ], [ -120.6471, 48.23887, 0.0 ], [ -120.6472, 48.23881, 0.0 ], [ -120.6472, 48.23872, 0.0 ], [ -120.6469, 48.23864, 0.0 ], [ -120.6467, 48.23857, 0.0 ], [ -120.6466, 48.2384, 0.0 ], [ -120.6468, 48.23833, 0.0 ], [ -120.6466, 48.23827, 0.0 ], [ -120.6463, 48.23805, 0.0 ], [ -120.6462, 48.23795, 0.0 ], [ -120.6462, 48.23777, 0.0 ], [ -120.6461, 48.23755, 0.0 ], [ -120.646, 48.23732, 0.0 ], [ -120.646, 48.23723, 0.0 ], [ -120.6462, 48.23714, 0.0 ], [ -120.6464, 48.23722, 0.0 ], [ -120.6467, 48.23735, 0.0 ], [ -120.6469, 48.23736, 0.0 ], [ -120.6469, 48.23763, 0.0 ], [ -120.6472, 48.23765, 0.0 ], [ -120.6474, 48.23771, 0.0 ], [ -120.6473, 48.23777, 0.0 ], [ -120.6471, 48.23792, 0.0 ], [ -120.6471, 48.23805, 0.0 ], [ -120.6473, 48.23815, 0.0 ], [ -120.6477, 48.23816, 0.0 ], [ -120.6479, 48.23816, 0.0 ], [ -120.6483, 48.23811, 0.0 ], [ -120.6485, 48.23806, 0.0 ], [ -120.6485, 48.23799, 0.0 ], [ -120.6486, 48.23792, 0.0 ], [ -120.6488, 48.23773, 0.0 ], [ -120.6489, 48.2375, 0.0 ], [ -120.649, 48.23718, 0.0 ], [ -120.6491, 48.2371, 0.0 ], [ -120.6491, 48.23699, 0.0 ], [ -120.6491, 48.23667, 0.0 ], [ -120.6492, 48.23652, 0.0 ], [ -120.6494, 48.2362, 0.0 ], [ -120.6492, 48.23614, 0.0 ], [ -120.649, 48.23623, 0.0 ], [ -120.6489, 48.23634, 0.0 ], [ -120.6489, 48.23653, 0.0 ], [ -120.6488, 48.23672, 0.0 ], [ -120.6487, 48.23697, 0.0 ], [ -120.6486, 48.23711, 0.0 ], [ -120.6484, 48.23728, 0.0 ], [ -120.6481, 48.23734, 0.0 ], [ -120.648, 48.2372, 0.0 ], [ -120.6478, 48.23687, 0.0 ], [ -120.6478, 48.23666, 0.0 ], [ -120.6479, 48.23643, 0.0 ], [ -120.6479, 48.23626, 0.0 ], [ -120.648, 48.23606, 0.0 ], [ -120.6484, 48.23603, 0.0 ], [ -120.6487, 48.23586, 0.0 ], [ -120.6488, 48.2355, 0.0 ], [ -120.6488, 48.23544, 0.0 ], [ -120.6485, 48.23541, 0.0 ], [ -120.6482, 48.2354, 0.0 ], [ -120.6479, 48.2354, 0.0 ], [ -120.6476, 48.23532, 0.0 ], [ -120.6476, 48.23518, 0.0 ], [ -120.6475, 48.23503, 0.0 ], [ -120.6477, 48.23494, 0.0 ], [ -120.6479, 48.23487, 0.0 ], [ -120.6478, 48.23475, 0.0 ], [ -120.6476, 48.23471, 0.0 ], [ -120.6475, 48.23461, 0.0 ], [ -120.6475, 48.23442, 0.0 ], [ -120.6478, 48.23435, 0.0 ], [ -120.6481, 48.2343, 0.0 ], [ -120.6485, 48.23431, 0.0 ], [ -120.6487, 48.2342, 0.0 ], [ -120.6487, 48.23412, 0.0 ], [ -120.6486, 48.23399, 0.0 ], [ -120.6487, 48.23378, 0.0 ], [ -120.6485, 48.23358, 0.0 ], [ -120.6486, 48.23339, 0.0 ], [ -120.6489, 48.23335, 0.0 ], [ -120.649, 48.23308, 0.0 ], [ -120.649, 48.23306, 0.0 ], [ -120.649, 48.23293, 0.0 ], [ -120.6489, 48.23281, 0.0 ], [ -120.6485, 48.23278, 0.0 ], [ -120.6482, 48.23272, 0.0 ], [ -120.6482, 48.23257, 0.0 ], [ -120.6481, 48.23253, 0.0 ], [ -120.648, 48.23239, 0.0 ], [ -120.6482, 48.23232, 0.0 ], [ -120.6483, 48.23227, 0.0 ], [ -120.6484, 48.23213, 0.0 ], [ -120.6486, 48.23206, 0.0 ], [ -120.6488, 48.23203, 0.0 ], [ -120.649, 48.23205, 0.0 ], [ -120.6491, 48.23215, 0.0 ], [ -120.6492, 48.23232, 0.0 ], [ -120.6493, 48.23244, 0.0 ], [ -120.6498, 48.23247, 0.0 ], [ -120.6504, 48.23257, 0.0 ], [ -120.6508, 48.23268, 0.0 ], [ -120.6509, 48.23281, 0.0 ], [ -120.6509, 48.23315, 0.0 ], [ -120.651, 48.23311, 0.0 ], [ -120.6512, 48.23315, 0.0 ], [ -120.6512, 48.23333, 0.0 ], [ -120.6512, 48.23341, 0.0 ], [ -120.6513, 48.23336, 0.0 ], [ -120.6516, 48.23333, 0.0 ], [ -120.6517, 48.23332, 0.0 ], [ -120.6518, 48.23311, 0.0 ], [ -120.6518, 48.23302, 0.0 ], [ -120.6516, 48.23296, 0.0 ], [ -120.6516, 48.2329, 0.0 ], [ -120.6516, 48.23275, 0.0 ], [ -120.6517, 48.2326, 0.0 ], [ -120.6519, 48.23249, 0.0 ], [ -120.6521, 48.23248, 0.0 ], [ -120.6522, 48.23247, 0.0 ], [ -120.6522, 48.2324, 0.0 ], [ -120.6522, 48.23238, 0.0 ], [ -120.6522, 48.23224, 0.0 ], [ -120.6523, 48.23211, 0.0 ], [ -120.6524, 48.23211, 0.0 ], [ -120.6524, 48.23207, 0.0 ], [ -120.6526, 48.23189, 0.0 ], [ -120.6527, 48.23193, 0.0 ], [ -120.6528, 48.23206, 0.0 ], [ -120.653, 48.23209, 0.0 ], [ -120.6532, 48.23202, 0.0 ], [ -120.6535, 48.23198, 0.0 ], [ -120.6534, 48.23189, 0.0 ], [ -120.6533, 48.23171, 0.0 ], [ -120.6534, 48.23169, 0.0 ], [ -120.6534, 48.23166, 0.0 ], [ -120.6532, 48.23158, 0.0 ], [ -120.653, 48.2315, 0.0 ], [ -120.6528, 48.2315, 0.0 ], [ -120.6525, 48.23151, 0.0 ], [ -120.6521, 48.2316, 0.0 ], [ -120.6518, 48.23159, 0.0 ], [ -120.6516, 48.23151, 0.0 ], [ -120.6515, 48.23134, 0.0 ], [ -120.6517, 48.23125, 0.0 ], [ -120.6519, 48.23124, 0.0 ], [ -120.6522, 48.23122, 0.0 ], [ -120.6524, 48.23115, 0.0 ], [ -120.6524, 48.231, 0.0 ], [ -120.6523, 48.23086, 0.0 ], [ -120.6519, 48.23074, 0.0 ], [ -120.6517, 48.2307, 0.0 ], [ -120.6518, 48.23056, 0.0 ], [ -120.6518, 48.23043, 0.0 ], [ -120.6516, 48.23029, 0.0 ], [ -120.6513, 48.23029, 0.0 ], [ -120.651, 48.23019, 0.0 ], [ -120.6508, 48.23007, 0.0 ], [ -120.651, 48.22996, 0.0 ], [ -120.6511, 48.22985, 0.0 ], [ -120.6513, 48.22972, 0.0 ], [ -120.6515, 48.22961, 0.0 ], [ -120.6517, 48.22953, 0.0 ], [ -120.6519, 48.22946, 0.0 ], [ -120.6522, 48.22937, 0.0 ], [ -120.6526, 48.22934, 0.0 ], [ -120.6528, 48.22937, 0.0 ], [ -120.6532, 48.22924, 0.0 ], [ -120.6531, 48.22907, 0.0 ], [ -120.6532, 48.22892, 0.0 ], [ -120.6533, 48.22886, 0.0 ], [ -120.6534, 48.22886, 0.0 ], [ -120.6536, 48.22888, 0.0 ], [ -120.6538, 48.22885, 0.0 ], [ -120.654, 48.22874, 0.0 ], [ -120.6541, 48.22853, 0.0 ], [ -120.6543, 48.22842, 0.0 ], [ -120.6546, 48.2284, 0.0 ], [ -120.6547, 48.2283, 0.0 ], [ -120.6549, 48.2282, 0.0 ], [ -120.655, 48.22818, 0.0 ], [ -120.6552, 48.22815, 0.0 ], [ -120.6553, 48.22797, 0.0 ], [ -120.6553, 48.22791, 0.0 ], [ -120.6554, 48.2279, 0.0 ], [ -120.6555, 48.22791, 0.0 ], [ -120.6556, 48.22787, 0.0 ], [ -120.6558, 48.22789, 0.0 ], [ -120.6562, 48.2278, 0.0 ], [ -120.6565, 48.22766, 0.0 ], [ -120.6565, 48.22762, 0.0 ], [ -120.6566, 48.22745, 0.0 ], [ -120.6567, 48.22718, 0.0 ], [ -120.6567, 48.22706, 0.0 ], [ -120.6569, 48.22698, 0.0 ], [ -120.6571, 48.22705, 0.0 ], [ -120.6571, 48.22709, 0.0 ], [ -120.6573, 48.22707, 0.0 ], [ -120.6574, 48.22702, 0.0 ], [ -120.6575, 48.2269, 0.0 ], [ -120.6575, 48.22684, 0.0 ], [ -120.6575, 48.22659, 0.0 ], [ -120.6576, 48.22642, 0.0 ], [ -120.6577, 48.22629, 0.0 ], [ -120.6578, 48.22626, 0.0 ], [ -120.6579, 48.22636, 0.0 ], [ -120.6582, 48.22639, 0.0 ], [ -120.6584, 48.22637, 0.0 ], [ -120.6586, 48.22633, 0.0 ], [ -120.6586, 48.22626, 0.0 ], [ -120.6586, 48.2261, 0.0 ], [ -120.6586, 48.22601, 0.0 ], [ -120.6587, 48.22597, 0.0 ], [ -120.6587, 48.22595, 0.0 ], [ -120.6588, 48.22596, 0.0 ], [ -120.6589, 48.22589, 0.0 ], [ -120.6592, 48.22571, 0.0 ], [ -120.6593, 48.22565, 0.0 ], [ -120.6593, 48.22562, 0.0 ], [ -120.6593, 48.22552, 0.0 ], [ -120.6593, 48.22552, 0.0 ], [ -120.6593, 48.22546, 0.0 ], [ -120.6592, 48.22532, 0.0 ], [ -120.6592, 48.22514, 0.0 ], [ -120.6591, 48.22501, 0.0 ], [ -120.6592, 48.2249, 0.0 ], [ -120.6593, 48.22482, 0.0 ], [ -120.6594, 48.22475, 0.0 ], [ -120.6595, 48.22459, 0.0 ], [ -120.6596, 48.22452, 0.0 ], [ -120.6597, 48.22451, 0.0 ], [ -120.66, 48.22446, 0.0 ], [ -120.6601, 48.22438, 0.0 ], [ -120.6602, 48.22425, 0.0 ], [ -120.6602, 48.22416, 0.0 ], [ -120.6602, 48.22403, 0.0 ], [ -120.6602, 48.2238, 0.0 ], [ -120.6603, 48.22355, 0.0 ], [ -120.6605, 48.22336, 0.0 ], [ -120.6607, 48.22327, 0.0 ], [ -120.6607, 48.22313, 0.0 ], [ -120.661, 48.22313, 0.0 ], [ -120.6611, 48.22321, 0.0 ], [ -120.6614, 48.22331, 0.0 ], [ -120.6615, 48.22342, 0.0 ], [ -120.6615, 48.22351, 0.0 ], [ -120.6615, 48.22351, 0.0 ], [ -120.6618, 48.2235, 0.0 ], [ -120.662, 48.22351, 0.0 ], [ -120.6622, 48.22353, 0.0 ], [ -120.6625, 48.22355, 0.0 ], [ -120.6627, 48.22348, 0.0 ], [ -120.6627, 48.2234, 0.0 ], [ -120.6627, 48.22326, 0.0 ], [ -120.6626, 48.2232, 0.0 ], [ -120.6626, 48.22308, 0.0 ], [ -120.6626, 48.22298, 0.0 ], [ -120.6626, 48.22284, 0.0 ], [ -120.6626, 48.22263, 0.0 ], [ -120.6625, 48.22248, 0.0 ], [ -120.6625, 48.22228, 0.0 ], [ -120.6624, 48.22215, 0.0 ], [ -120.6625, 48.22202, 0.0 ], [ -120.6625, 48.22179, 0.0 ], [ -120.6625, 48.22161, 0.0 ], [ -120.6625, 48.22156, 0.0 ], [ -120.6625, 48.22154, 0.0 ], [ -120.6626, 48.22157, 0.0 ], [ -120.6627, 48.22156, 0.0 ], [ -120.6628, 48.22156, 0.0 ], [ -120.6628, 48.22167, 0.0 ], [ -120.6629, 48.22174, 0.0 ], [ -120.6629, 48.22177, 0.0 ], [ -120.663, 48.22184, 0.0 ], [ -120.6631, 48.2219, 0.0 ], [ -120.6632, 48.22183, 0.0 ], [ -120.6632, 48.22182, 0.0 ], [ -120.6634, 48.22192, 0.0 ], [ -120.6634, 48.22195, 0.0 ], [ -120.6634, 48.22195, 0.0 ], [ -120.6635, 48.22204, 0.0 ], [ -120.6634, 48.22207, 0.0 ], [ -120.6634, 48.22215, 0.0 ], [ -120.6634, 48.22228, 0.0 ], [ -120.6634, 48.22241, 0.0 ], [ -120.6635, 48.22259, 0.0 ], [ -120.6636, 48.22268, 0.0 ], [ -120.6637, 48.22271, 0.0 ], [ -120.6639, 48.22269, 0.0 ], [ -120.6639, 48.22261, 0.0 ], [ -120.664, 48.2225, 0.0 ], [ -120.6641, 48.22233, 0.0 ], [ -120.6643, 48.22226, 0.0 ], [ -120.6646, 48.22221, 0.0 ], [ -120.6647, 48.22225, 0.0 ], [ -120.6648, 48.22238, 0.0 ], [ -120.6648, 48.22252, 0.0 ], [ -120.6648, 48.22264, 0.0 ], [ -120.6648, 48.22278, 0.0 ], [ -120.6648, 48.22288, 0.0 ], [ -120.6649, 48.22297, 0.0 ], [ -120.6653, 48.22299, 0.0 ], [ -120.6654, 48.22285, 0.0 ], [ -120.6655, 48.22273, 0.0 ], [ -120.6656, 48.22268, 0.0 ], [ -120.6657, 48.22269, 0.0 ], [ -120.6658, 48.22276, 0.0 ], [ -120.666, 48.22279, 0.0 ], [ -120.6662, 48.22285, 0.0 ], [ -120.6662, 48.22286, 0.0 ], [ -120.6662, 48.22285, 0.0 ], [ -120.6663, 48.22285, 0.0 ], [ -120.6664, 48.22294, 0.0 ], [ -120.6664, 48.22301, 0.0 ], [ -120.6664, 48.22301, 0.0 ], [ -120.6665, 48.22307, 0.0 ], [ -120.6664, 48.22313, 0.0 ], [ -120.6663, 48.22318, 0.0 ], [ -120.6663, 48.22318, 0.0 ], [ -120.6663, 48.22319, 0.0 ], [ -120.6662, 48.22328, 0.0 ], [ -120.6661, 48.22339, 0.0 ], [ -120.6662, 48.22349, 0.0 ], [ -120.6664, 48.22346, 0.0 ], [ -120.6665, 48.22342, 0.0 ], [ -120.6666, 48.22337, 0.0 ], [ -120.6667, 48.22337, 0.0 ], [ -120.6668, 48.22333, 0.0 ], [ -120.6669, 48.2233, 0.0 ], [ -120.667, 48.22332, 0.0 ], [ -120.667, 48.22335, 0.0 ], [ -120.667, 48.22335, 0.0 ], [ -120.6672, 48.22341, 0.0 ], [ -120.6673, 48.22355, 0.0 ], [ -120.6674, 48.22371, 0.0 ], [ -120.6673, 48.22385, 0.0 ], [ -120.6673, 48.22388, 0.0 ], [ -120.6672, 48.22392, 0.0 ], [ -120.667, 48.22391, 0.0 ], [ -120.6669, 48.22391, 0.0 ], [ -120.6668, 48.22387, 0.0 ], [ -120.6667, 48.22392, 0.0 ], [ -120.6667, 48.22403, 0.0 ], [ -120.6666, 48.22408, 0.0 ], [ -120.6665, 48.22409, 0.0 ], [ -120.6664, 48.22418, 0.0 ], [ -120.6664, 48.22425, 0.0 ], [ -120.6663, 48.22431, 0.0 ], [ -120.6662, 48.22432, 0.0 ], [ -120.6661, 48.22433, 0.0 ], [ -120.6659, 48.22436, 0.0 ], [ -120.6657, 48.22439, 0.0 ], [ -120.6656, 48.2244, 0.0 ], [ -120.6654, 48.22442, 0.0 ], [ -120.6653, 48.22449, 0.0 ], [ -120.6652, 48.22462, 0.0 ], [ -120.6652, 48.22473, 0.0 ], [ -120.6652, 48.22484, 0.0 ], [ -120.6653, 48.22495, 0.0 ], [ -120.6655, 48.22498, 0.0 ], [ -120.6657, 48.22508, 0.0 ], [ -120.6658, 48.22513, 0.0 ], [ -120.6659, 48.22523, 0.0 ], [ -120.6659, 48.22535, 0.0 ], [ -120.6659, 48.2254, 0.0 ], [ -120.666, 48.22549, 0.0 ], [ -120.666, 48.22558, 0.0 ], [ -120.666, 48.22568, 0.0 ], [ -120.666, 48.2257, 0.0 ], [ -120.666, 48.22577, 0.0 ], [ -120.6662, 48.22588, 0.0 ], [ -120.6663, 48.226, 0.0 ], [ -120.6664, 48.22614, 0.0 ], [ -120.6665, 48.22636, 0.0 ], [ -120.6665, 48.22657, 0.0 ], [ -120.6665, 48.2268, 0.0 ], [ -120.6665, 48.22698, 0.0 ], [ -120.6665, 48.22713, 0.0 ], [ -120.6666, 48.22733, 0.0 ], [ -120.6665, 48.22746, 0.0 ], [ -120.6664, 48.22756, 0.0 ], [ -120.6664, 48.22763, 0.0 ], [ -120.6666, 48.22774, 0.0 ], [ -120.6666, 48.22774, 0.0 ], [ -120.6667, 48.22769, 0.0 ], [ -120.6669, 48.22772, 0.0 ], [ -120.6669, 48.22773, 0.0 ], [ -120.6669, 48.22773, 0.0 ], [ -120.667, 48.22771, 0.0 ], [ -120.6671, 48.22778, 0.0 ], [ -120.6671, 48.22771, 0.0 ], [ -120.6672, 48.22755, 0.0 ], [ -120.6673, 48.22747, 0.0 ], [ -120.6676, 48.22751, 0.0 ], [ -120.6679, 48.22755, 0.0 ], [ -120.668, 48.22762, 0.0 ], [ -120.6681, 48.22774, 0.0 ], [ -120.6681, 48.22791, 0.0 ], [ -120.668, 48.2281, 0.0 ], [ -120.668, 48.22821, 0.0 ], [ -120.6681, 48.22824, 0.0 ], [ -120.6681, 48.22826, 0.0 ], [ -120.6681, 48.22828, 0.0 ], [ -120.6682, 48.22828, 0.0 ], [ -120.6683, 48.22834, 0.0 ], [ -120.6683, 48.22844, 0.0 ], [ -120.6683, 48.22851, 0.0 ], [ -120.6683, 48.22853, 0.0 ], [ -120.6684, 48.22852, 0.0 ], [ -120.6685, 48.22869, 0.0 ], [ -120.6684, 48.22874, 0.0 ], [ -120.6685, 48.22876, 0.0 ], [ -120.6686, 48.22888, 0.0 ], [ -120.6686, 48.22903, 0.0 ], [ -120.6687, 48.22906, 0.0 ], [ -120.6688, 48.22916, 0.0 ], [ -120.6689, 48.22928, 0.0 ], [ -120.6688, 48.22939, 0.0 ], [ -120.6686, 48.22939, 0.0 ], [ -120.6684, 48.22935, 0.0 ], [ -120.6684, 48.22931, 0.0 ], [ -120.6682, 48.22935, 0.0 ], [ -120.668, 48.22938, 0.0 ], [ -120.668, 48.22947, 0.0 ], [ -120.6681, 48.22954, 0.0 ], [ -120.6682, 48.22966, 0.0 ], [ -120.6682, 48.22971, 0.0 ], [ -120.6682, 48.22973, 0.0 ], [ -120.6685, 48.22989, 0.0 ], [ -120.6684, 48.23009, 0.0 ], [ -120.6684, 48.23023, 0.0 ], [ -120.6683, 48.23037, 0.0 ], [ -120.6681, 48.23045, 0.0 ], [ -120.668, 48.23058, 0.0 ], [ -120.6679, 48.23079, 0.0 ], [ -120.6677, 48.23087, 0.0 ], [ -120.6677, 48.23086, 0.0 ], [ -120.6677, 48.23095, 0.0 ], [ -120.6675, 48.23109, 0.0 ], [ -120.6671, 48.2312, 0.0 ], [ -120.6672, 48.23125, 0.0 ], [ -120.6672, 48.23146, 0.0 ], [ -120.6671, 48.23149, 0.0 ], [ -120.6671, 48.23154, 0.0 ], [ -120.667, 48.23164, 0.0 ], [ -120.667, 48.23169, 0.0 ], [ -120.667, 48.23173, 0.0 ], [ -120.6671, 48.23186, 0.0 ], [ -120.6674, 48.23194, 0.0 ], [ -120.6675, 48.23203, 0.0 ], [ -120.6674, 48.23217, 0.0 ], [ -120.6674, 48.23219, 0.0 ], [ -120.6675, 48.2323, 0.0 ], [ -120.6674, 48.23244, 0.0 ], [ -120.6673, 48.23265, 0.0 ], [ -120.6671, 48.23267, 0.0 ], [ -120.6669, 48.23272, 0.0 ], [ -120.6666, 48.23266, 0.0 ], [ -120.6666, 48.23254, 0.0 ], [ -120.6666, 48.23246, 0.0 ], [ -120.6665, 48.23239, 0.0 ], [ -120.6665, 48.23244, 0.0 ], [ -120.6662, 48.23252, 0.0 ], [ -120.6661, 48.2327, 0.0 ], [ -120.666, 48.23281, 0.0 ], [ -120.6659, 48.23289, 0.0 ], [ -120.6659, 48.23296, 0.0 ], [ -120.6659, 48.23311, 0.0 ], [ -120.6659, 48.23322, 0.0 ], [ -120.6661, 48.23335, 0.0 ], [ -120.6662, 48.23345, 0.0 ], [ -120.6663, 48.2335, 0.0 ], [ -120.6664, 48.23349, 0.0 ], [ -120.6668, 48.23357, 0.0 ], [ -120.6672, 48.23383, 0.0 ], [ -120.6674, 48.23393, 0.0 ], [ -120.6679, 48.23413, 0.0 ], [ -120.6681, 48.23427, 0.0 ], [ -120.6682, 48.2344, 0.0 ], [ -120.6681, 48.23457, 0.0 ], [ -120.6679, 48.23463, 0.0 ], [ -120.6679, 48.2348, 0.0 ], [ -120.668, 48.23484, 0.0 ], [ -120.668, 48.23501, 0.0 ], [ -120.6678, 48.23508, 0.0 ], [ -120.6677, 48.23508, 0.0 ], [ -120.6675, 48.23513, 0.0 ], [ -120.6673, 48.23523, 0.0 ], [ -120.667, 48.23531, 0.0 ], [ -120.6667, 48.23529, 0.0 ], [ -120.6666, 48.23529, 0.0 ], [ -120.6665, 48.23528, 0.0 ], [ -120.6665, 48.23534, 0.0 ], [ -120.666, 48.2353, 0.0 ], [ -120.666, 48.2356, 0.0 ], [ -120.6662, 48.23584, 0.0 ], [ -120.6662, 48.23585, 0.0 ], [ -120.6664, 48.23595, 0.0 ], [ -120.6666, 48.23605, 0.0 ], [ -120.6667, 48.23611, 0.0 ], [ -120.6667, 48.2362, 0.0 ], [ -120.6666, 48.23626, 0.0 ], [ -120.6663, 48.23633, 0.0 ], [ -120.6663, 48.23636, 0.0 ], [ -120.6663, 48.23645, 0.0 ], [ -120.6662, 48.23674, 0.0 ], [ -120.6664, 48.23674, 0.0 ], [ -120.6666, 48.23663, 0.0 ], [ -120.6668, 48.23669, 0.0 ], [ -120.6668, 48.23686, 0.0 ], [ -120.667, 48.23717, 0.0 ], [ -120.6669, 48.23735, 0.0 ], [ -120.6667, 48.23758, 0.0 ], [ -120.6666, 48.23769, 0.0 ], [ -120.6667, 48.23773, 0.0 ], [ -120.6668, 48.23771, 0.0 ], [ -120.6672, 48.23772, 0.0 ], [ -120.6673, 48.23783, 0.0 ], [ -120.6672, 48.23795, 0.0 ], [ -120.667, 48.23802, 0.0 ], [ -120.6669, 48.23801, 0.0 ], [ -120.6668, 48.23801, 0.0 ], [ -120.6668, 48.23802, 0.0 ], [ -120.6668, 48.23814, 0.0 ], [ -120.6668, 48.23815, 0.0 ], [ -120.667, 48.23823, 0.0 ], [ -120.6668, 48.2384, 0.0 ], [ -120.6666, 48.23837, 0.0 ], [ -120.6666, 48.23837, 0.0 ], [ -120.6665, 48.23845, 0.0 ], [ -120.6663, 48.23857, 0.0 ], [ -120.6663, 48.23864, 0.0 ], [ -120.6664, 48.23865, 0.0 ], [ -120.6665, 48.23877, 0.0 ], [ -120.6664, 48.23888, 0.0 ], [ -120.6662, 48.23888, 0.0 ], [ -120.666, 48.23894, 0.0 ], [ -120.6658, 48.23912, 0.0 ], [ -120.6657, 48.23934, 0.0 ], [ -120.6655, 48.23938, 0.0 ], [ -120.6654, 48.23936, 0.0 ], [ -120.6653, 48.23922, 0.0 ], [ -120.6653, 48.23903, 0.0 ], [ -120.6654, 48.23883, 0.0 ], [ -120.6655, 48.23867, 0.0 ], [ -120.6655, 48.23851, 0.0 ], [ -120.6656, 48.23832, 0.0 ], [ -120.6656, 48.2382, 0.0 ], [ -120.6654, 48.23806, 0.0 ], [ -120.6653, 48.23795, 0.0 ], [ -120.6653, 48.23793, 0.0 ], [ -120.6652, 48.23801, 0.0 ], [ -120.6651, 48.23804, 0.0 ], [ -120.6648, 48.23801, 0.0 ], [ -120.6647, 48.23794, 0.0 ], [ -120.6647, 48.23772, 0.0 ], [ -120.6648, 48.23754, 0.0 ], [ -120.6648, 48.23733, 0.0 ], [ -120.6649, 48.23716, 0.0 ], [ -120.665, 48.2369, 0.0 ], [ -120.6651, 48.23675, 0.0 ], [ -120.665, 48.23652, 0.0 ], [ -120.665, 48.2364, 0.0 ], [ -120.6649, 48.23645, 0.0 ], [ -120.6646, 48.23653, 0.0 ], [ -120.6645, 48.23648, 0.0 ], [ -120.6645, 48.23622, 0.0 ], [ -120.6645, 48.23603, 0.0 ], [ -120.6648, 48.23577, 0.0 ], [ -120.6646, 48.23573, 0.0 ], [ -120.6645, 48.23571, 0.0 ], [ -120.6642, 48.23573, 0.0 ], [ -120.6641, 48.23567, 0.0 ], [ -120.664, 48.23548, 0.0 ], [ -120.664, 48.23544, 0.0 ], [ -120.6637, 48.23545, 0.0 ], [ -120.6632, 48.23545, 0.0 ], [ -120.6628, 48.23544, 0.0 ], [ -120.6627, 48.23532, 0.0 ], [ -120.6626, 48.23513, 0.0 ], [ -120.6628, 48.23494, 0.0 ], [ -120.6628, 48.23485, 0.0 ], [ -120.6632, 48.2348, 0.0 ], [ -120.6636, 48.23465, 0.0 ], [ -120.6635, 48.23438, 0.0 ], [ -120.6634, 48.23425, 0.0 ], [ -120.6632, 48.23411, 0.0 ], [ -120.6631, 48.23399, 0.0 ], [ -120.6629, 48.23388, 0.0 ], [ -120.6629, 48.23374, 0.0 ], [ -120.6629, 48.23357, 0.0 ], [ -120.6628, 48.23356, 0.0 ], [ -120.6627, 48.23345, 0.0 ], [ -120.6624, 48.23334, 0.0 ], [ -120.6624, 48.23332, 0.0 ], [ -120.6624, 48.23333, 0.0 ], [ -120.6622, 48.23339, 0.0 ], [ -120.6619, 48.23342, 0.0 ], [ -120.6618, 48.23338, 0.0 ], [ -120.6616, 48.23331, 0.0 ], [ -120.6615, 48.2333, 0.0 ], [ -120.6613, 48.23333, 0.0 ], [ -120.6612, 48.23346, 0.0 ], [ -120.6611, 48.23353, 0.0 ], [ -120.6611, 48.23355, 0.0 ], [ -120.6611, 48.23363, 0.0 ], [ -120.6611, 48.23367, 0.0 ], [ -120.661, 48.23367, 0.0 ], [ -120.6609, 48.23374, 0.0 ], [ -120.6607, 48.23383, 0.0 ], [ -120.6605, 48.23386, 0.0 ], [ -120.6603, 48.23393, 0.0 ], [ -120.6601, 48.23399, 0.0 ], [ -120.6599, 48.23401, 0.0 ], [ -120.6596, 48.23409, 0.0 ], [ -120.6595, 48.23425, 0.0 ], [ -120.6595, 48.23426, 0.0 ], [ -120.6595, 48.23431, 0.0 ], [ -120.6595, 48.23442, 0.0 ], [ -120.6595, 48.23453, 0.0 ], [ -120.6595, 48.2347, 0.0 ], [ -120.6595, 48.23479, 0.0 ], [ -120.6593, 48.23485, 0.0 ], [ -120.6592, 48.23487, 0.0 ], [ -120.659, 48.23489, 0.0 ], [ -120.6588, 48.2349, 0.0 ], [ -120.6588, 48.23494, 0.0 ], [ -120.6587, 48.23509, 0.0 ], [ -120.6585, 48.2352, 0.0 ], [ -120.6584, 48.23521, 0.0 ], [ -120.6584, 48.23536, 0.0 ], [ -120.6584, 48.23536, 0.0 ], [ -120.6585, 48.23537, 0.0 ], [ -120.6585, 48.23552, 0.0 ], [ -120.6585, 48.23568, 0.0 ], [ -120.6586, 48.23581, 0.0 ], [ -120.6586, 48.23606, 0.0 ], [ -120.6586, 48.23607, 0.0 ], [ -120.6586, 48.23609, 0.0 ], [ -120.6586, 48.23623, 0.0 ], [ -120.6589, 48.23639, 0.0 ], [ -120.6592, 48.23672, 0.0 ], [ -120.6594, 48.237, 0.0 ], [ -120.6593, 48.23719, 0.0 ], [ -120.6591, 48.23725, 0.0 ], [ -120.6587, 48.23726, 0.0 ], [ -120.6587, 48.23714, 0.0 ], [ -120.6586, 48.23708, 0.0 ], [ -120.6584, 48.2371, 0.0 ], [ -120.6584, 48.23708, 0.0 ], [ -120.6582, 48.23694, 0.0 ], [ -120.6582, 48.23687, 0.0 ], [ -120.6581, 48.23689, 0.0 ], [ -120.6579, 48.2368, 0.0 ], [ -120.6581, 48.23666, 0.0 ], [ -120.6581, 48.23654, 0.0 ], [ -120.6581, 48.23645, 0.0 ], [ -120.658, 48.23641, 0.0 ], [ -120.6577, 48.23639, 0.0 ], [ -120.6576, 48.23622, 0.0 ], [ -120.6577, 48.23608, 0.0 ], [ -120.6577, 48.23598, 0.0 ], [ -120.6577, 48.2359, 0.0 ], [ -120.6575, 48.23589, 0.0 ], [ -120.6573, 48.23588, 0.0 ], [ -120.6572, 48.23586, 0.0 ], [ -120.6572, 48.23583, 0.0 ], [ -120.6572, 48.23615, 0.0 ], [ -120.6572, 48.2365, 0.0 ], [ -120.6571, 48.23672, 0.0 ], [ -120.6569, 48.23679, 0.0 ], [ -120.6569, 48.23679, 0.0 ], [ -120.6569, 48.23681, 0.0 ], [ -120.6569, 48.23702, 0.0 ], [ -120.6569, 48.23713, 0.0 ], [ -120.6569, 48.23713, 0.0 ], [ -120.657, 48.23714, 0.0 ], [ -120.6571, 48.23715, 0.0 ], [ -120.6574, 48.23713, 0.0 ], [ -120.6576, 48.23713, 0.0 ], [ -120.6577, 48.23716, 0.0 ], [ -120.6577, 48.2373, 0.0 ], [ -120.6578, 48.23742, 0.0 ], [ -120.658, 48.23749, 0.0 ], [ -120.6581, 48.23759, 0.0 ], [ -120.658, 48.23773, 0.0 ], [ -120.658, 48.23785, 0.0 ], [ -120.658, 48.23786, 0.0 ], [ -120.6581, 48.23797, 0.0 ], [ -120.6581, 48.2382, 0.0 ], [ -120.658, 48.23835, 0.0 ], [ -120.6577, 48.23849, 0.0 ], [ -120.6574, 48.23843, 0.0 ], [ -120.6571, 48.23839, 0.0 ], [ -120.6566, 48.23841, 0.0 ], [ -120.6562, 48.2385, 0.0 ], [ -120.6559, 48.23849, 0.0 ], [ -120.6556, 48.23847, 0.0 ], [ -120.6555, 48.23854, 0.0 ], [ -120.6555, 48.23872, 0.0 ], [ -120.6551, 48.23878, 0.0 ], [ -120.6548, 48.23885, 0.0 ], [ -120.6545, 48.23906, 0.0 ], [ -120.6545, 48.23915, 0.0 ], [ -120.6543, 48.23944, 0.0 ], [ -120.6542, 48.23968, 0.0 ], [ -120.6539, 48.23971, 0.0 ], [ -120.6538, 48.23994, 0.0 ], [ -120.6537, 48.24017, 0.0 ], [ -120.6535, 48.24028, 0.0 ], [ -120.6533, 48.24028, 0.0 ], [ -120.6532, 48.24041, 0.0 ], [ -120.6533, 48.24044, 0.0 ], [ -120.6535, 48.24052, 0.0 ], [ -120.6532, 48.24067, 0.0 ], [ -120.653, 48.24076, 0.0 ], [ -120.6527, 48.24077, 0.0 ], [ -120.6525, 48.24094, 0.0 ], [ -120.6522, 48.24101, 0.0 ], [ -120.6517, 48.241, 0.0 ], [ -120.6514, 48.24092, 0.0 ], [ -120.6512, 48.24089, 0.0 ], [ -120.651, 48.24078, 0.0 ], [ -120.6507, 48.24073, 0.0 ], [ -120.6504, 48.24073, 0.0 ], [ -120.6501, 48.24053, 0.0 ], [ -120.6499, 48.24045, 0.0 ], [ -120.6499, 48.24058, 0.0 ], [ -120.6497, 48.24071, 0.0 ], [ -120.6497, 48.24088, 0.0 ], [ -120.65, 48.24106, 0.0 ], [ -120.6501, 48.24112, 0.0 ], [ -120.65, 48.24121, 0.0 ], [ -120.6497, 48.24126, 0.0 ], [ -120.6492, 48.24131, 0.0 ], [ -120.649, 48.24131, 0.0 ], [ -120.6486, 48.2413, 0.0 ], [ -120.6486, 48.2412, 0.0 ], [ -120.6487, 48.24111, 0.0 ], [ -120.649, 48.24096, 0.0 ] ] ] ] } }

]
}
